…
    ## -- Conflicts ------------------------------------------ tidyverse_conflicts() --
    ## x dplyr::filter() masks stats::filter()
    ## x dplyr::lag()    masks stats::lag()

# 1. Dplyr - filter

## 1.1 Encuentra todos los vuelos que:

### Tuvieron un retaso de llegada de dos o más horas

``` r
filter(flights, arr_delay >= 120)
```

    ## # A tibble: 10,200 x 19
    ##     year month   day dep_time sched_dep_time dep_delay arr_time sched_arr_time
    ##    <int> <int> <int>    <int>          <int>     <dbl>    <int>          <int>
    ##  1  2013     1     1      811            630       101     1047            830
    ##  2  2013     1     1      848           1835       853     1001           1950
    ##  3  2013     1     1      957            733       144     1056            853
    ##  4  2013     1     1     1114            900       134     1447           1222
    ##  5  2013     1     1     1505           1310       115     1638           1431
    ##  6  2013     1     1     1525           1340       105     1831           1626
    ##  7  2013     1     1     1549           1445        64     1912           1656
    ##  8  2013     1     1     1558           1359       119     1718           1515
    ##  9  2013     1     1     1732           1630        62     2028           1825
    ## 10  2013     1     1     1803           1620       103     2008           1750
    ## # ... with 10,190 more rows, and 11 more variables: arr_delay <dbl>,
    ## #   carrier <chr>, flight <int>, tailnum <chr>, origin <chr>, dest <chr>,
    ## #   air_time <dbl>, distance <dbl>, hour <dbl>, minute <dbl>, time_hour <dttm>

### Volaron a Houston (IAH oHOU)

``` r
filter(flights,dest == "IAH" | dest ==  "HOU" )
```

    ## # A tibble: 9,313 x 19
    ##     year month   day dep_time sched_dep_time dep_delay arr_time sched_arr_time
    ##    <int> <int> <int>    <int>          <int>     <dbl>    <int>          <int>
    ##  1  2013     1     1      517            515         2      830            819
    ##  2  2013     1     1      533            529         4      850            830
    ##  3  2013     1     1      623            627        -4      933            932
    ##  4  2013     1     1      728            732        -4     1041           1038
    ##  5  2013     1     1      739            739         0     1104           1038
    ##  6  2013     1     1      908            908         0     1228           1219
    ##  7  2013     1     1     1028           1026         2     1350           1339
    ##  8  2013     1     1     1044           1045        -1     1352           1351
    ##  9  2013     1     1     1114            900       134     1447           1222
    ## 10  2013     1     1     1205           1200         5     1503           1505
    ## # ... with 9,303 more rows, and 11 more variables: arr_delay <dbl>,
    ## #   carrier <chr>, flight <int>, tailnum <chr>, origin <chr>, dest <chr>,
    ## #   air_time <dbl>, distance <dbl>, hour <dbl>, minute <dbl>, time_hour <dttm>

### Fueron operados por United, American o Delta

``` r
filter(flights, carrier == "UA" | carrier == "AA" | carrier == "DL")
```

    ## # A tibble: 139,504 x 19
    ##     year month   day dep_time sched_dep_time dep_delay arr_time sched_arr_time
    ##    <int> <int> <int>    <int>          <int>     <dbl>    <int>          <int>
    ##  1  2013     1     1      517            515         2      830            819
    ##  2  2013     1     1      533            529         4      850            830
    ##  3  2013     1     1      542            540         2      923            850
    ##  4  2013     1     1      554            600        -6      812            837
    ##  5  2013     1     1      554            558        -4      740            728
    ##  6  2013     1     1      558            600        -2      753            745
    ##  7  2013     1     1      558            600        -2      924            917
    ##  8  2013     1     1      558            600        -2      923            937
    ##  9  2013     1     1      559            600        -1      941            910
    ## 10  2013     1     1      559            600        -1      854            902
    ## # ... with 139,494 more rows, and 11 more variables: arr_delay <dbl>,
    ## #   carrier <chr>, flight <int>, tailnum <chr>, origin <chr>, dest <chr>,
    ## #   air_time <dbl>, distance <dbl>, hour <dbl>, minute <dbl>, time_hour <dttm>

### Partieron en invierno del hemisferio sur (julio, agosto y septiembre)

``` r
filter(flights, month == 07 | month == 08 | month == 09)
```

    ## # A tibble: 86,326 x 19
    ##     year month   day dep_time sched_dep_time dep_delay arr_time sched_arr_time
    ##    <int> <int> <int>    <int>          <int>     <dbl>    <int>          <int>
    ##  1  2013     7     1        1           2029       212      236           2359
    ##  2  2013     7     1        2           2359         3      344            344
    ##  3  2013     7     1       29           2245       104      151              1
    ##  4  2013     7     1       43           2130       193      322             14
    ##  5  2013     7     1       44           2150       174      300            100
    ##  6  2013     7     1       46           2051       235      304           2358
    ##  7  2013     7     1       48           2001       287      308           2305
    ##  8  2013     7     1       58           2155       183      335             43
    ##  9  2013     7     1      100           2146       194      327             30
    ## 10  2013     7     1      100           2245       135      337            135
    ## # ... with 86,316 more rows, and 11 more variables: arr_delay <dbl>,
    ## #   carrier <chr>, flight <int>, tailnum <chr>, origin <chr>, dest <chr>,
    ## #   air_time <dbl>, distance <dbl>, hour <dbl>, minute <dbl>, time_hour <dttm>
…
### Se retrasaron por lo menos una hora, pero repusieron más de 30 minutos en vuelo

``` r
flights %>%
  filter(dep_delay >= 60) %>%
  filter(arr_delay == 30)
```

    ## # A tibble: 33 x 19
    ##     year month   day dep_time sched_dep_time dep_delay arr_time sched_arr_time
    ##    <int> <int> <int>    <int>          <int>     <dbl>    <int>          <int>
    ##  1  2013    10     5     1605           1500        65     1857           1827
    ##  2  2013    10     9     2056           1955        61     2217           2147
    ##  3  2013    10    11     2101           2000        61     2202           2132
    ##  4  2013    10    15     2008           1900        68     2131           2101
    ##  5  2013    11     6     2208           2100        68     2309           2239
    ##  6  2013    11     9     2021           1915        66     2203           2133
    ##  7  2013    12    27     1709           1605        64     1906           1836
    ##  8  2013    12    28     1953           1845        68     2250           2220
    ##  9  2013     2    16     1741           1630        71     1917           1847
    ## 10  2013     3     3     1719           1605        74     1903           1833
    ## # ... with 23 more rows, and 11 more variables: arr_delay <dbl>, carrier <chr>,
    ## #   flight <int>, tailnum <chr>, origin <chr>, dest <chr>, air_time <dbl>,
    ## #   distance <dbl>, hour <dbl>, minute <dbl>, time_hour <dttm>

### Partieron entre la medianoche y las 6 a.m. (incluyente)

``` r
filter(flights, sched_dep_time %in% c(1:600) | sched_dep_time == 2400)
```

    ## # A tibble: 8,970 x 19
    ##     year month   day dep_time sched_dep_time dep_delay arr_time sched_arr_time
    ##    <int> <int> <int>    <int>          <int>     <dbl>    <int>          <int>
    ##  1  2013     1     1      517            515         2      830            819
    ##  2  2013     1     1      533            529         4      850            830
    ##  3  2013     1     1      542            540         2      923            850
    ##  4  2013     1     1      544            545        -1     1004           1022
    ##  5  2013     1     1      554            600        -6      812            837
    ##  6  2013     1     1      554            558        -4      740            728
    ##  7  2013     1     1      555            600        -5      913            854
    ##  8  2013     1     1      557            600        -3      709            723
    ##  9  2013     1     1      557            600        -3      838            846
    ## 10  2013     1     1      558            600        -2      753            745
    ## # ... with 8,960 more rows, and 11 more variables: arr_delay <dbl>,
    ## #   carrier <chr>, flight <int>, tailnum <chr>, origin <chr>, dest <chr>,
    ## #   air_time <dbl>, distance <dbl>, hour <dbl>, minute <dbl>, time_hour <dttm>

## 1.2 Otra función de dplyr que es útil para usar filtros es between(). ¿Qué hace? ¿Puedes usarla para simplificar el código necesario para responder a los desafíos anteriores?

``` r
filter(flights, between(month, 2, 3))
```

    ## # A tibble: 53,785 x 19
    ##     year month   day dep_time sched_dep_time dep_delay arr_time sched_arr_time
    ##    <int> <int> <int>    <int>          <int>     <dbl>    <int>          <int>
    ##  1  2013     2     1      456            500        -4      652            648
    ##  2  2013     2     1      520            525        -5      816            820
    ##  3  2013     2     1      527            530        -3      837            829
    ##  4  2013     2     1      532            540        -8     1007           1017
    ##  5  2013     2     1      540            540         0      859            850
    ##  6  2013     2     1      552            600        -8      714            715
    ##  7  2013     2     1      552            600        -8      919            910
    ##  8  2013     2     1      552            600        -8      655            709
    ##  9  2013     2     1      553            600        -7      833            815
    ## 10  2013     2     1      553            600        -7      821            825
    ## # ... with 53,775 more rows, and 11 more variables: arr_delay <dbl>,
    ## #   carrier <chr>, flight <int>, tailnum <chr>, origin <chr>, dest <chr>,
    ## #   air_time <dbl>, distance <dbl>, hour <dbl>, minute <dbl>, time_hour <dttm>

## 1.3 ¿Cuántos vuelos tienen datos faltantes en horario_salida? ¿Qué otras variables tienen valores faltantes? ¿Qué representan estas filas?

``` r
filter(flights, is.na(dep_time))
```

    ## # A tibble: 8,255 x 19
    ##     year month   day dep_time sched_dep_time dep_delay arr_time sched_arr_time
    ##    <int> <int> <int>    <int>          <int>     <dbl>    <int>          <int>
    ##  1  2013     1     1       NA           1630        NA       NA           1815
    ##  2  2013     1     1       NA           1935        NA       NA           2240
    ##  3  2013     1     1       NA           1500        NA       NA           1825
    ##  4  2013     1     1       NA            600        NA       NA            901
    ##  5  2013     1     2       NA           1540        NA       NA           1747
    ##  6  2013     1     2       NA           1620        NA       NA           1746
    ##  7  2013     1     2       NA           1355        NA       NA           1459
    ##  8  2013     1     2       NA           1420        NA       NA           1644
    ##  9  2013     1     2       NA           1321        NA       NA           1536
    ## 10  2013     1     2       NA           1545        NA       NA           1910
    ## # ... with 8,245 more rows, and 11 more variables: arr_delay <dbl>,
    ## #   carrier <chr>, flight <int>, tailnum <chr>, origin <chr>, dest <chr>,
    ## #   air_time <dbl>, distance <dbl>, hour <dbl>, minute <dbl>, time_hour <dttm>
…
    ## [1] NaN

``` r
#En este contraejemplo puede ser útil pensar que el `NA` puede tomar cualquier valor, incluso podría ser un número muy grande; el cual al multiplicarse por cero nos da una indeterminación que `R` define como `NaN` (Not a Number). Por otro lado, si el `NA` fuese un valor pequeño, entonces `NA*0` sería igual a cero. Luego, es mejor pensar en `x*0` como un `NA` porque no sabemos en cual de los dos casos anteriores estamos.
```

# 2. Dplyr - arrange

## 2.1 ¿Cómo podrías usar arrange() para ordenar todos los valores faltantes al comienzo? (Sugerencia: usa is.na()).

``` r
arrange(flights,desc(is.na(dep_time)))
```

    ## # A tibble: 336,776 x 19
    ##     year month   day dep_time sched_dep_time dep_delay arr_time sched_arr_time
    ##    <int> <int> <int>    <int>          <int>     <dbl>    <int>          <int>
    ##  1  2013     1     1       NA           1630        NA       NA           1815
    ##  2  2013     1     1       NA           1935        NA       NA           2240
    ##  3  2013     1     1       NA           1500        NA       NA           1825
    ##  4  2013     1     1       NA            600        NA       NA            901
    ##  5  2013     1     2       NA           1540        NA       NA           1747
    ##  6  2013     1     2       NA           1620        NA       NA           1746
    ##  7  2013     1     2       NA           1355        NA       NA           1459
    ##  8  2013     1     2       NA           1420        NA       NA           1644
    ##  9  2013     1     2       NA           1321        NA       NA           1536
    ## 10  2013     1     2       NA           1545        NA       NA           1910
    ## # ... with 336,766 more rows, and 11 more variables: arr_delay <dbl>,
    ## #   carrier <chr>, flight <int>, tailnum <chr>, origin <chr>, dest <chr>,
    ## #   air_time <dbl>, distance <dbl>, hour <dbl>, minute <dbl>, time_hour <dttm>

## 2.2 Ordena vuelos para encontrar los vuelos más retrasados. Encuentra los vuelos que salieron más temprano.

``` r
arrange(flights, desc(dep_delay))
```

    ## # A tibble: 336,776 x 19
    ##     year month   day dep_time sched_dep_time dep_delay arr_time sched_arr_time
    ##    <int> <int> <int>    <int>          <int>     <dbl>    <int>          <int>
    ##  1  2013     1     9      641            900      1301     1242           1530
    ##  2  2013     6    15     1432           1935      1137     1607           2120
    ##  3  2013     1    10     1121           1635      1126     1239           1810
    ##  4  2013     9    20     1139           1845      1014     1457           2210
    ##  5  2013     7    22      845           1600      1005     1044           1815
    ##  6  2013     4    10     1100           1900       960     1342           2211
    ##  7  2013     3    17     2321            810       911      135           1020
    ##  8  2013     6    27      959           1900       899     1236           2226
    ##  9  2013     7    22     2257            759       898      121           1026
    ## 10  2013    12     5      756           1700       896     1058           2020
    ## # ... with 336,766 more rows, and 11 more variables: arr_delay <dbl>,
    ## #   carrier <chr>, flight <int>, tailnum <chr>, origin <chr>, dest <chr>,
    ## #   air_time <dbl>, distance <dbl>, hour <dbl>, minute <dbl>, time_hour <dttm>

## 2.3 Ordena vuelos para encontrar los vuelos más rápidos (que viajaron a mayor velocidad).

``` r
arrange(flights, desc(distance/air_time))
```

    ## # A tibble: 336,776 x 19
    ##     year month   day dep_time sched_dep_time dep_delay arr_time sched_arr_time
    ##    <int> <int> <int>    <int>          <int>     <dbl>    <int>          <int>
    ##  1  2013     5    25     1709           1700         9     1923           1937
    ##  2  2013     7     2     1558           1513        45     1745           1719
    ##  3  2013     5    13     2040           2025        15     2225           2226
    ##  4  2013     3    23     1914           1910         4     2045           2043
    ##  5  2013     1    12     1559           1600        -1     1849           1917
    ##  6  2013    11    17      650            655        -5     1059           1150
    ##  7  2013     2    21     2355           2358        -3      412            438
    ##  8  2013    11    17      759            800        -1     1212           1255
    ##  9  2013    11    16     2003           1925        38       17             36
    ## 10  2013    11    16     2349           2359       -10      402            440
    ## # ... with 336,766 more rows, and 11 more variables: arr_delay <dbl>,
    ## #   carrier <chr>, flight <int>, tailnum <chr>, origin <chr>, dest <chr>,
    ## #   air_time <dbl>, distance <dbl>, hour <dbl>, minute <dbl>, time_hour <dttm>

## 2.4 ¿Cuáles vuelos viajaron más lejos? ¿Cuál viajó más cerca?

``` r
arrange(flights,desc(distance))
```

    ## # A tibble: 336,776 x 19
    ##     year month   day dep_time sched_dep_time dep_delay arr_time sched_arr_time
    ##    <int> <int> <int>    <int>          <int>     <dbl>    <int>          <int>
    ##  1  2013     1     1      857            900        -3     1516           1530
    ##  2  2013     1     2      909            900         9     1525           1530
    ##  3  2013     1     3      914            900        14     1504           1530
    ##  4  2013     1     4      900            900         0     1516           1530
    ##  5  2013     1     5      858            900        -2     1519           1530
    ##  6  2013     1     6     1019            900        79     1558           1530
    ##  7  2013     1     7     1042            900       102     1620           1530
    ##  8  2013     1     8      901            900         1     1504           1530
    ##  9  2013     1     9      641            900      1301     1242           1530
    ## 10  2013     1    10      859            900        -1     1449           1530
    ## # ... with 336,766 more rows, and 11 more variables: arr_delay <dbl>,
    ## #   carrier <chr>, flight <int>, tailnum <chr>, origin <chr>, dest <chr>,
    ## #   air_time <dbl>, distance <dbl>, hour <dbl>, minute <dbl>, time_hour <dttm>

``` r
arrange(flights,distance)
```

    ## # A tibble: 336,776 x 19
    ##     year month   day dep_time sched_dep_time dep_delay arr_time sched_arr_time
    ##    <int> <int> <int>    <int>          <int>     <dbl>    <int>          <int>
    ##  1  2013     7    27       NA            106        NA       NA            245
    ##  2  2013     1     3     2127           2129        -2     2222           2224
    ##  3  2013     1     4     1240           1200        40     1333           1306
    ##  4  2013     1     4     1829           1615       134     1937           1721
    ##  5  2013     1     4     2128           2129        -1     2218           2224
    ##  6  2013     1     5     1155           1200        -5     1241           1306
    ##  7  2013     1     6     2125           2129        -4     2224           2224
    ##  8  2013     1     7     2124           2129        -5     2212           2224
    ##  9  2013     1     8     2127           2130        -3     2304           2225
    ## 10  2013     1     9     2126           2129        -3     2217           2224
    ## # ... with 336,766 more rows, and 11 more variables: arr_delay <dbl>,
    ## #   carrier <chr>, flight <int>, tailnum <chr>, origin <chr>, dest <chr>,
    ## #   air_time <dbl>, distance <dbl>, hour <dbl>, minute <dbl>, time_hour <dttm>
…
